Aishwarya’s Data Journey - Take-Home_Ex03
…
ggplotly(prop)

Code

prop_sg <- sg_re_price_2022_v1%>%
group_by(town, flat_type) %>%
summarize(ft_count = n())%>%
mutate(ft_pct = scales::percent(ft_count/sum(ft_count)))

prop_sg

# A tibble: 78 × 4
# Groups:   town [26]
   town        flat_type ft_count ft_pct
   <chr>       <chr>        <int> <chr> 
 1 ANG MO KIO  3 ROOM         524 56%   
 2 ANG MO KIO  4 ROOM         287 30%   
 3 ANG MO KIO  5 ROOM         132 14%   
 4 BEDOK       3 ROOM         555 43.7% 
 5 BEDOK       4 ROOM         462 36.4% 
 6 BEDOK       5 ROOM         253 19.9% 
 7 BISHAN      3 ROOM          65 17%   
 8 BISHAN      4 ROOM         200 51%   
 9 BISHAN      5 ROOM         124 32%   
10 BUKIT BATOK 3 ROOM         281 35%   
# … with 68 more rows
…
